%YAML 1.1
%TAG !u! tag:unity3d.com,2011:
--- !u!29 &1
OcclusionCullingSettings:
  m_ObjectHideFlags: 0
  serializedVersion: 2
  m_OcclusionBakeSettings:
    smallestOccluder: 5
    smallestHole: 0.25
    backfaceThreshold: 100
  m_SceneGUID: 00000000000000000000000000000000
  m_OcclusionCullingData: {fileID: 0}
--- !u!104 &2
RenderSettings:
  m_ObjectHideFlags: 0
  serializedVersion: 8
  m_Fog: 0
  m_FogColor: {r: 0.5, g: 0.5, b: 0.5, a: 1}
  m_FogMode: 3
  m_FogDensity: 0.01
  m_LinearFogStart: 0
  m_LinearFogEnd: 300
  m_AmbientSkyColor: {r: 0.212, g: 0.227, b: 0.259, a: 1}
  m_AmbientEquatorColor: {r: 0.114, g: 0.125, b: 0.133, a: 1}
  m_AmbientGroundColor: {r: 0.047, g: 0.043, b: 0.035, a: 1}
  m_AmbientIntensity: 1
  m_AmbientMode: 0
  m_SubtractiveShadowColor: {r: 0.42, g: 0.478, b: 0.627, a: 1}
  m_SkyboxMaterial: {fileID: 10304, guid: 0000000000000000f000000000000000, type: 0}
  m_HaloStrength: 0.5
  m_FlareStrength: 1
  m_FlareFadeSpeed: 3
  m_HaloTexture: {fileID: 0}
  m_SpotCookie: {fileID: 10001, guid: 0000000000000000e000000000000000, type: 0}
  m_DefaultReflectionMode: 0
  m_DefaultReflectionResolution: 128
  m_ReflectionBounces: 1
  m_ReflectionIntensity: 1
  m_CustomReflection: {fileID: 0}
  m_Sun: {fileID: 0}
  m_IndirectSpecularColor: {r: 0.44657844, g: 0.49641222, b: 0.57481694, a: 1}
--- !u!157 &3
LightmapSettings:
  m_ObjectHideFlags: 0
  serializedVersion: 11
  m_GIWorkflowMode: 0
  m_GISettings:
    serializedVersion: 2
    m_BounceScale: 1
    m_IndirectOutputScale: 1
    m_AlbedoBoost: 1
    m_TemporalCoherenceThreshold: 1
    m_EnvironmentLightingMode: 0
    m_EnableBakedLightmaps: 1
    m_EnableRealtimeLightmaps: 1
  m_LightmapEditorSettings:
    serializedVersion: 9
    m_Resolution: 2
    m_BakeResolution: 40
    m_TextureWidth: 1024
    m_TextureHeight: 1024
    m_AO: 0
    m_AOMaxDistance: 1
    m_CompAOExponent: 1
    m_CompAOExponentDirect: 0
    m_Padding: 2
    m_LightmapParameters: {fileID: 0}
    m_LightmapsBakeMode: 1
    m_TextureCompression: 1
    m_FinalGather: 0
    m_FinalGatherFiltering: 1
    m_FinalGatherRayCount: 256
    m_ReflectionCompression: 2
    m_MixedBakeMode: 1
    m_BakeBackend: 0
    m_PVRSampling: 1
    m_PVRDirectSampleCount: 32
    m_PVRSampleCount: 500
    m_PVRBounces: 2
    m_PVRFilterTypeDirect: 0
    m_PVRFilterTypeIndirect: 0
    m_PVRFilterTypeAO: 0
    m_PVRFilteringMode: 0
    m_PVRCulling: 1
    m_PVRFilteringGaussRadiusDirect: 1
    m_PVRFilteringGaussRadiusIndirect: 5
    m_PVRFilteringGaussRadiusAO: 2
    m_PVRFilteringAtrousPositionSigmaDirect: 0.5
    m_PVRFilteringAtrousPositionSigmaIndirect: 2
    m_PVRFilteringAtrousPositionSigmaAO: 1
  m_LightingDataAsset: {fileID: 0}
  m_UseShadowmask: 0
--- !u!196 &4
NavMeshSettings:
  serializedVersion: 2
  m_ObjectHideFlags: 0
  m_BuildSettings:
    serializedVersion: 2
    agentTypeID: 0
    agentRadius: 0.5
    agentHeight: 2
    agentSlope: 45
    agentClimb: 0.4
    ledgeDropHeight: 0
    maxJumpAcrossDistance: 0
    minRegionArea: 2
    manualCellSize: 0
    cellSize: 0.16666667
    manualTileSize: 0
    tileSize: 256
    accuratePlacement: 0
    debug:
      m_Flags: 0
  m_NavMeshData: {fileID: 0}
--- !u!1001 &72460204
Prefab:
  m_ObjectHideFlags: 0
  serializedVersion: 2
  m_Modification:
    m_TransformParent: {fileID: 776336333}
    m_Modifications:
    - target: {fileID: 4953092474104740, guid: f28355d17a9d6a849b08ce8c2ee4cae3, type: 2}
      propertyPath: m_LocalPosition.x
      value: -1.225769
      objectReference: {fileID: 0}
    - target: {fileID: 4953092474104740, guid: f28355d17a9d6a849b08ce8c2ee4cae3, type: 2}
      propertyPath: m_LocalPosition.y
      value: 0
      objectReference: {fileID: 0}
    - target: {fileID: 4953092474104740, guid: f28355d17a9d6a849b08ce8c2ee4cae3, type: 2}
      propertyPath: m_LocalPosition.z
      value: 0
      objectReference: {fileID: 0}
    - target: {fileID: 4953092474104740, guid: f28355d17a9d6a849b08ce8c2ee4cae3, type: 2}
      propertyPath: m_LocalRotation.x
      value: 0.000000021855694
      objectReference: {fileID: 0}
    - target: {fileID: 4953092474104740, guid: f28355d17a9d6a849b08ce8c2ee4cae3, type: 2}
      propertyPath: m_LocalRotation.y
      value: -0
      objectReference: {fileID: 0}
    - target: {fileID: 4953092474104740, guid: f28355d17a9d6a849b08ce8c2ee4cae3, type: 2}
      propertyPath: m_LocalRotation.z
      value: -0
      objectReference: {fileID: 0}
    - target: {fileID: 4953092474104740, guid: f28355d17a9d6a849b08ce8c2ee4cae3, type: 2}
      propertyPath: m_LocalRotation.w
      value: 1
      objectReference: {fileID: 0}
    - target: {fileID: 4953092474104740, guid: f28355d17a9d6a849b08ce8c2ee4cae3, type: 2}
      propertyPath: m_RootOrder
      value: 6
      objectReference: {fileID: 0}
    m_RemovedComponents: []
  m_ParentPrefab: {fileID: 100100000, guid: f28355d17a9d6a849b08ce8c2ee4cae3, type: 2}
  m_RootGameObject: {fileID: 723389238}
  m_IsPrefabParent: 0
--- !u!4 &72460205
Transform:
  m_ObjectHideFlags: 0
  m_PrefabParentObject: {fileID: 4953092474104740, guid: f28355d17a9d6a849b08ce8c2ee4cae3,
    type: 2}
  m_PrefabInternal: {fileID: 72460204}
  m_GameObject: {fileID: 723389238}
  m_LocalRotation: {x: 0.000000021855694, y: -0, z: -0, w: 1}
  m_LocalPosition: {x: -1.225769, y: 0, z: 0}
  m_LocalScale: {x: 1, y: 1, z: 1}
  m_Children: []
  m_Father: {fileID: 776336333}
  m_RootOrder: 6
  m_LocalEulerAnglesHint: {x: 0, y: 0, z: 0}
--- !u!1001 &91410344
Prefab:
  m_ObjectHideFlags: 0
  serializedVersion: 2
  m_Modification:
    m_TransformParent: {fileID: 776336333}
    m_Modifications:
    - target: {fileID: 4343119592681732, guid: 95f262cc55d2a584aa5e6e40e9aaf743, type: 2}
      propertyPath: m_LocalPosition.x
      value: 0.0000000762939
      objectReference: {fileID: 0}
    - target: {fileID: 4343119592681732, guid: 95f262cc55d2a584aa5e6e40e9aaf743, type: 2}
      propertyPath: m_LocalPosition.y
      value: 0
      objectReference: {fileID: 0}
    - target: {fileID: 4343119592681732, guid: 95f262cc55d2a584aa5e6e40e9aaf743, type: 2}
      propertyPath: m_LocalPosition.z
      value: -3.2013037
      objectReference: {fileID: 0}
    - target: {fileID: 4343119592681732, guid: 95f262cc55d2a584aa5e6e40e9aaf743, type: 2}
      propertyPath: m_LocalRotation.x
      value: 0.000000021855694
      objectReference: {fileID: 0}
    - target: {fileID: 4343119592681732, guid: 95f262cc55d2a584aa5e6e40e9aaf743, type: 2}
      propertyPath: m_LocalRotation.y
      value: -0
      objectReference: {fileID: 0}
    - target: {fileID: 4343119592681732, guid: 95f262cc55d2a584aa5e6e40e9aaf743, type: 2}
      propertyPath: m_LocalRotation.z
      value: -0
      objectReference: {fileID: 0}
    - target: {fileID: 4343119592681732, guid: 95f262cc55d2a584aa5e6e40e9aaf743, type: 2}
      propertyPath: m_LocalRotation.w
      value: 1
      objectReference: {fileID: 0}
    - target: {fileID: 4343119592681732, guid: 95f262cc55d2a584aa5e6e40e9aaf743, type: 2}
      propertyPath: m_RootOrder
      value: 3
      objectReference: {fileID: 0}
    m_RemovedComponents: []
  m_ParentPrefab: {fileID: 100100000, guid: 95f262cc55d2a584aa5e6e40e9aaf743, type: 2}
  m_RootGameObject: {fileID: 1321554098}
  m_IsPrefabParent: 0
--- !u!4 &91410345
Transform:
  m_ObjectHideFlags: 0
  m_PrefabParentObject: {fileID: 4343119592681732, guid: 95f262cc55d2a584aa5e6e40e9aaf743,
    type: 2}
  m_PrefabInternal: {fileID: 91410344}
  m_GameObject: {fileID: 1321554098}
  m_LocalRotation: {x: 0.000000021855694, y: -0, z: -0, w: 1}
  m_LocalPosition: {x: 0.0000000762939, y: 0, z: -3.2013037}
  m_LocalScale: {x: 1, y: 1, z: 1}
  m_Children: []
  m_Father: {fileID: 776336333}
  m_RootOrder: 3
  m_LocalEulerAnglesHint: {x: 0, y: 0, z: 0}
--- !u!1001 &211248237
Prefab:
  m_ObjectHideFlags: 0
  serializedVersion: 2
  m_Modification:
    m_TransformParent: {fileID: 776336333}
    m_Modifications:
    - target: {fileID: 4272243127642692, guid: 89aea4c19feaa6b478b30e54dca07dc7, type: 2}
      propertyPath: m_LocalPosition.x
      value: 0.00000022888192
      objectReference: {fileID: 0}
    - target: {fileID: 4272243127642692, guid: 89aea4c19feaa6b478b30e54dca07dc7, type: 2}
      propertyPath: m_LocalPosition.y
      value: 0
      objectReference: {fileID: 0}
    - target: {fileID: 4272243127642692, guid: 89aea4c19feaa6b478b30e54dca07dc7, type: 2}
      propertyPath: m_LocalPosition.z
      value: 3.2149785
      objectReference: {fileID: 0}
    - target: {fileID: 4272243127642692, guid: 89aea4c19feaa6b478b30e54dca07dc7, type: 2}
      propertyPath: m_LocalRotation.x
      value: 0.000000021855694
      objectReference: {fileID: 0}
    - target: {fileID: 4272243127642692, guid: 89aea4c19feaa6b478b30e54dca07dc7, type: 2}
      propertyPath: m_LocalRotation.y
      value: -0
      objectReference: {fileID: 0}
    - target: {fileID: 4272243127642692, guid: 89aea4c19feaa6b478b30e54dca07dc7, type: 2}
      propertyPath: m_LocalRotation.z
      value: -0
      objectReference: {fileID: 0}
    - target: {fileID: 4272243127642692, guid: 89aea4c19feaa6b478b30e54dca07dc7, type: 2}
      propertyPath: m_LocalRotation.w
      value: 1
      objectReference: {fileID: 0}
    - target: {fileID: 4272243127642692, guid: 89aea4c19feaa6b478b30e54dca07dc7, type: 2}
      propertyPath: m_RootOrder
      value: 2
      objectReference: {fileID: 0}
    m_RemovedComponents: []
  m_ParentPrefab: {fileID: 100100000, guid: 89aea4c19feaa6b478b30e54dca07dc7, type: 2}
  m_RootGameObject: {fileID: 358196711}
  m_IsPrefabParent: 0
--- !u!4 &211248238
Transform:
  m_ObjectHideFlags: 0
  m_PrefabParentObject: {fileID: 4272243127642692, guid: 89aea4c19feaa6b478b30e54dca07dc7,
    type: 2}
  m_PrefabInternal: {fileID: 211248237}
  m_GameObject: {fileID: 358196711}
  m_LocalRotation: {x: 0.000000021855694, y: -0, z: -0, w: 1}
  m_LocalPosition: {x: 0.00000022888192, y: 0, z: 3.2149785}
  m_LocalScale: {x: 1, y: 1, z: 1}
  m_Children: []
  m_Father: {fileID: 776336333}
  m_RootOrder: 2
  m_LocalEulerAnglesHint: {x: 0, y: 0, z: 0}
--- !u!1 &358196711
GameObject:
  m_ObjectHideFlags: 0
  m_PrefabParentObject: {fileID: 1522236234615568, guid: 89aea4c19feaa6b478b30e54dca07dc7,
    type: 2}
  m_PrefabInternal: {fileID: 211248237}
  serializedVersion: 5
  m_Component:
  - component: {fileID: 211248238}
  - component: {fileID: 358196713}
  - component: {fileID: 358196712}
  m_Layer: 0
  m_Name: StarSparrow_Plasma
  m_TagString: Untagged
  m_Icon: {fileID: 0}
  m_NavMeshLayer: 0
  m_StaticEditorFlags: 0
  m_IsActive: 1
--- !u!23 &358196712
MeshRenderer:
  m_ObjectHideFlags: 0
  m_PrefabParentObject: {fileID: 23105420330546414, guid: 89aea4c19feaa6b478b30e54dca07dc7,
    type: 2}
  m_PrefabInternal: {fileID: 211248237}
  m_GameObject: {fileID: 358196711}
  m_Enabled: 1
  m_CastShadows: 1
  m_ReceiveShadows: 1
  m_DynamicOccludee: 1
  m_MotionVectors: 1
  m_LightProbeUsage: 1
  m_ReflectionProbeUsage: 1
  m_Materials:
  - {fileID: 2100000, guid: 786dec18edde8a14289922c9e2d93ccd, type: 2}
  m_StaticBatchInfo:
    firstSubMesh: 0
    subMeshCount: 0
  m_StaticBatchRoot: {fileID: 0}
  m_ProbeAnchor: {fileID: 0}
  m_LightProbeVolumeOverride: {fileID: 0}
  m_ScaleInLightmap: 1
  m_PreserveUVs: 0
  m_IgnoreNormalsForChartDetection: 0
  m_ImportantGI: 0
  m_StitchLightmapSeams: 0
  m_SelectedEditorRenderState: 3
  m_MinimumChartSize: 4
  m_AutoUVMaxDistance: 0.5
  m_AutoUVMaxAngle: 89
  m_LightmapParameters: {fileID: 0}
  m_SortingLayerID: 0
  m_SortingLayer: 0
  m_SortingOrder: 0
--- !u!33 &358196713
MeshFilter:
  m_ObjectHideFlags: 0
  m_PrefabParentObject: {fileID: 33968837987444810, guid: 89aea4c19feaa6b478b30e54dca07dc7,
    type: 2}
  m_PrefabInternal: {fileID: 211248237}
  m_GameObject: {fileID: 358196711}
  m_Mesh: {fileID: 4300000, guid: c9b3d1ee538a9e649acda3363ad265d7, type: 3}
--- !u!1 &423384680
GameObject:
  m_ObjectHideFlags: 0
  m_PrefabParentObject: {fileID: 1448305959681908, guid: 8b599e99eefaea44ebe009a9af4be634,
    type: 2}
  m_PrefabInternal: {fileID: 972124951}
  serializedVersion: 5
  m_Component:
  - component: {fileID: 972124952}
  - component: {fileID: 423384682}
  - component: {fileID: 423384681}
  m_Layer: 0
  m_Name: StarSparrow_Wing_3_Left
  m_TagString: Untagged
  m_Icon: {fileID: 0}
  m_NavMeshLayer: 0
  m_StaticEditorFlags: 0
  m_IsActive: 1
--- !u!23 &423384681
MeshRenderer:
  m_ObjectHideFlags: 0
  m_PrefabParentObject: {fileID: 23334151004320184, guid: 8b599e99eefaea44ebe009a9af4be634,
    type: 2}
  m_PrefabInternal: {fileID: 972124951}
  m_GameObject: {fileID: 423384680}
  m_Enabled: 1
  m_CastShadows: 1
  m_ReceiveShadows: 1
  m_DynamicOccludee: 1
  m_MotionVectors: 1
  m_LightProbeUsage: 1
  m_ReflectionProbeUsage: 1
  m_Materials:
  - {fileID: 2100000, guid: 786dec18edde8a14289922c9e2d93ccd, type: 2}
  m_StaticBatchInfo:
    firstSubMesh: 0
    subMeshCount: 0
  m_StaticBatchRoot: {fileID: 0}
  m_ProbeAnchor: {fileID: 0}
  m_LightProbeVolumeOverride: {fileID: 0}
  m_ScaleInLightmap: 1
  m_PreserveUVs: 0
  m_IgnoreNormalsForChartDetection: 0
  m_ImportantGI: 0
  m_StitchLightmapSeams: 0
  m_SelectedEditorRenderState: 3
  m_MinimumChartSize: 4
  m_AutoUVMaxDistance: 0.5
  m_AutoUVMaxAngle: 89
  m_LightmapParameters: {fileID: 0}
  m_SortingLayerID: 0
  m_SortingLayer: 0
  m_SortingOrder: 0
--- !u!33 &423384682
MeshFilter:
  m_ObjectHideFlags: 0
  m_PrefabParentObject: {fileID: 33128702340472964, guid: 8b599e99eefaea44ebe009a9af4be634,
    type: 2}
  m_PrefabInternal: {fileID: 972124951}
  m_GameObject: {fileID: 423384680}
  m_Mesh: {fileID: 4300012, guid: c9b3d1ee538a9e649acda3363ad265d7, type: 3}
--- !u!1 &653689083
GameObject:
  m_ObjectHideFlags: 0
  m_PrefabParentObject: {fileID: 1313798919198210, guid: 004958d78054f604bba95e0a23bc6744,
    type: 2}
  m_PrefabInternal: {fileID: 1566108571}
  serializedVersion: 5
  m_Component:
  - component: {fileID: 1566108572}
  - component: {fileID: 653689085}
  - component: {fileID: 653689084}
  m_Layer: 0
  m_Name: StarSparrow_Wing_3_Right
  m_TagString: Untagged
  m_Icon: {fileID: 0}
  m_NavMeshLayer: 0
  m_StaticEditorFlags: 0
  m_IsActive: 1
--- !u!23 &653689084
MeshRenderer:
  m_ObjectHideFlags: 0
  m_PrefabParentObject: {fileID: 23512130428521376, guid: 004958d78054f604bba95e0a23bc6744,
    type: 2}
  m_PrefabInternal: {fileID: 1566108571}
  m_GameObject: {fileID: 653689083}
  m_Enabled: 1
  m_CastShadows: 1
  m_ReceiveShadows: 1
  m_DynamicOccludee: 1
  m_MotionVectors: 1
  m_LightProbeUsage: 1
  m_ReflectionProbeUsage: 1
  m_Materials:
  - {fileID: 2100000, guid: 786dec18edde8a14289922c9e2d93ccd, type: 2}
  m_StaticBatchInfo:
    firstSubMesh: 0
    subMeshCount: 0
  m_StaticBatchRoot: {fileID: 0}
  m_ProbeAnchor: {fileID: 0}
  m_LightProbeVolumeOverride: {fileID: 0}
  m_ScaleInLightmap: 1
  m_PreserveUVs: 0
  m_IgnoreNormalsForChartDetection: 0
  m_ImportantGI: 0
  m_StitchLightmapSeams: 0
  m_SelectedEditorRenderState: 3
  m_MinimumChartSize: 4
  m_AutoUVMaxDistance: 0.5
  m_AutoUVMaxAngle: 89
  m_LightmapParameters: {fileID: 0}
  m_SortingLayerID: 0
  m_SortingLayer: 0
  m_SortingOrder: 0
--- !u!33 &653689085
MeshFilter:
  m_ObjectHideFlags: 0
  m_PrefabParentObject: {fileID: 33702479410463202, guid: 004958d78054f604bba95e0a23bc6744,
    type: 2}
  m_PrefabInternal: {fileID: 1566108571}
  m_GameObject: {fileID: 653689083}
  m_Mesh: {fileID: 4300022, guid: c9b3d1ee538a9e649acda3363ad265d7, type: 3}
--- !u!1 &723389238
GameObject:
  m_ObjectHideFlags: 0
  m_PrefabParentObject: {fileID: 1616940004181574, guid: f28355d17a9d6a849b08ce8c2ee4cae3,
    type: 2}
  m_PrefabInternal: {fileID: 72460204}
  serializedVersion: 5
  m_Component:
  - component: {fileID: 72460205}
  - component: {fileID: 723389240}
  - component: {fileID: 723389239}
  m_Layer: 0
  m_Name: StarSparrow_Wing_1_Left
  m_TagString: Untagged
  m_Icon: {fileID: 0}
  m_NavMeshLayer: 0
  m_StaticEditorFlags: 0
  m_IsActive: 1
--- !u!23 &723389239
MeshRenderer:
  m_ObjectHideFlags: 0
  m_PrefabParentObject: {fileID: 23393548913518708, guid: f28355d17a9d6a849b08ce8c2ee4cae3,
    type: 2}
  m_PrefabInternal: {fileID: 72460204}
  m_GameObject: {fileID: 723389238}
  m_Enabled: 1
  m_CastShadows: 1
  m_ReceiveShadows: 1
  m_DynamicOccludee: 1
  m_MotionVectors: 1
  m_LightProbeUsage: 1
  m_ReflectionProbeUsage: 1
  m_Materials:
  - {fileID: 2100000, guid: 786dec18edde8a14289922c9e2d93ccd, type: 2}
  m_StaticBatchInfo:
    firstSubMesh: 0
    subMeshCount: 0
  m_StaticBatchRoot: {fileID: 0}
  m_ProbeAnchor: {fileID: 0}
  m_LightProbeVolumeOverride: {fileID: 0}
  m_ScaleInLightmap: 1
  m_PreserveUVs: 0
  m_IgnoreNormalsForChartDetection: 0
  m_ImportantGI: 0
  m_StitchLightmapSeams: 0
  m_SelectedEditorRenderState: 3
  m_MinimumChartSize: 4
  m_AutoUVMaxDistance: 0.5
  m_AutoUVMaxAngle: 89
  m_LightmapParameters: {fileID: 0}
  m_SortingLayerID: 0
  m_SortingLayer: 0
  m_SortingOrder: 0
--- !u!33 &723389240
MeshFilter:
  m_ObjectHideFlags: 0
  m_PrefabParentObject: {fileID: 33413631573140752, guid: f28355d17a9d6a849b08ce8c2ee4cae3,
    type: 2}
  m_PrefabInternal: {fileID: 72460204}
  m_GameObject: {fileID: 723389238}
  m_Mesh: {fileID: 4300008, guid: c9b3d1ee538a9e649acda3363ad265d7, type: 3}
--- !u!1001 &747909531
Prefab:
  m_ObjectHideFlags: 0
  serializedVersion: 2
  m_Modification:
    m_TransformParent: {fileID: 776336333}
    m_Modifications:
    - target: {fileID: 4685792975201842, guid: 5beefef5814c76a44ab94e38b53a6277, type: 2}
      propertyPath: m_LocalPosition.x
      value: -1.041763
      objectReference: {fileID: 0}
    - target: {fileID: 4685792975201842, guid: 5beefef5814c76a44ab94e38b53a6277, type: 2}
      propertyPath: m_LocalPosition.y
      value: 0
      objectReference: {fileID: 0}
    - target: {fileID: 4685792975201842, guid: 5beefef5814c76a44ab94e38b53a6277, type: 2}
      propertyPath: m_LocalPosition.z
      value: -1.7986872
      objectReference: {fileID: 0}
    - target: {fileID: 4685792975201842, guid: 5beefef5814c76a44ab94e38b53a6277, type: 2}
      propertyPath: m_LocalRotation.x
      value: 0.000000021855694
      objectReference: {fileID: 0}
    - target: {fileID: 4685792975201842, guid: 5beefef5814c76a44ab94e38b53a6277, type: 2}
      propertyPath: m_LocalRotation.y
      value: -0
      objectReference: {fileID: 0}
    - target: {fileID: 4685792975201842, guid: 5beefef5814c76a44ab94e38b53a6277, type: 2}
      propertyPath: m_LocalRotation.z
      value: -0
      objectReference: {fileID: 0}
    - target: {fileID: 4685792975201842, guid: 5beefef5814c76a44ab94e38b53a6277, type: 2}
      propertyPath: m_LocalRotation.w
      value: 1
      objectReference: {fileID: 0}
    - target: {fileID: 4685792975201842, guid: 5beefef5814c76a44ab94e38b53a6277, type: 2}
      propertyPath: m_RootOrder
      value: 8
      objectReference: {fileID: 0}
    m_RemovedComponents: []
  m_ParentPrefab: {fileID: 100100000, guid: 5beefef5814c76a44ab94e38b53a6277, type: 2}
  m_RootGameObject: {fileID: 1116285351}
  m_IsPrefabParent: 0
--- !u!4 &747909532
Transform:
  m_ObjectHideFlags: 0
  m_PrefabParentObject: {fileID: 4685792975201842, guid: 5beefef5814c76a44ab94e38b53a6277,
    type: 2}
  m_PrefabInternal: {fileID: 747909531}
  m_GameObject: {fileID: 1116285351}
  m_LocalRotation: {x: 0.000000021855694, y: -0, z: -0, w: 1}
  m_LocalPosition: {x: -1.041763, y: 0, z: -1.7986872}
  m_LocalScale: {x: 1, y: 1, z: 1}
  m_Children: []
  m_Father: {fileID: 776336333}
  m_RootOrder: 8
  m_LocalEulerAnglesHint: {x: 0, y: 0, z: 0}
--- !u!1 &776336331
GameObject:
  m_ObjectHideFlags: 0
  m_PrefabParentObject: {fileID: 100024, guid: c9b3d1ee538a9e649acda3363ad265d7, type: 3}
  m_PrefabInternal: {fileID: 0}
  serializedVersion: 5
  m_Component:
  - component: {fileID: 776336333}
  - component: {fileID: 776336332}
  m_Layer: 0
  m_Name: StarSparrowModules
  m_TagString: Untagged
  m_Icon: {fileID: 0}
  m_NavMeshLayer: 0
  m_StaticEditorFlags: 0
  m_IsActive: 1
--- !u!95 &776336332
Animator:
  serializedVersion: 3
  m_ObjectHideFlags: 0
  m_PrefabParentObject: {fileID: 9500000, guid: c9b3d1ee538a9e649acda3363ad265d7,
    type: 3}
  m_PrefabInternal: {fileID: 0}
  m_GameObject: {fileID: 776336331}
  m_Enabled: 1
  m_Avatar: {fileID: 9000000, guid: c9b3d1ee538a9e649acda3363ad265d7, type: 3}
  m_Controller: {fileID: 0}
  m_CullingMode: 0
  m_UpdateMode: 0
  m_ApplyRootMotion: 0
  m_LinearVelocityBlending: 0
  m_WarningMessage: 
  m_HasTransformHierarchy: 1
  m_AllowConstantClipSamplingOptimization: 1
--- !u!4 &776336333
Transform:
  m_ObjectHideFlags: 0
  m_PrefabParentObject: {fileID: 400024, guid: c9b3d1ee538a9e649acda3363ad265d7, type: 3}
  m_PrefabInternal: {fileID: 0}
  m_GameObject: {fileID: 776336331}
  m_LocalRotation: {x: 0, y: 0, z: 0, w: 1}
  m_LocalPosition: {x: 0, y: 0, z: 0}
  m_LocalScale: {x: 1, y: 1, z: 1}
  m_Children:
  - {fileID: 1111136358}
  - {fileID: 1405115935}
  - {fileID: 211248238}
  - {fileID: 91410345}
  - {fileID: 1669586787}
  - {fileID: 1855337411}
  - {fileID: 72460205}
  - {fileID: 915018658}
  - {fileID: 747909532}
  - {fileID: 1353142622}
  - {fileID: 972124952}
  - {fileID: 1566108572}
  m_Father: {fileID: 0}
  m_RootOrder: 2
  m_LocalEulerAnglesHint: {x: 0, y: 0, z: 0}
--- !u!1001 &915018657
Prefab:
  m_ObjectHideFlags: 0
  serializedVersion: 2
  m_Modification:
    m_TransformParent: {fileID: 776336333}
    m_Modifications:
    - target: {fileID: 4605653821508802, guid: 66b96d211a1b1844db4a407d34d56104, type: 2}
      propertyPath: m_LocalPosition.x
      value: 1.22577
      objectReference: {fileID: 0}
    - target: {fileID: 4605653821508802, guid: 66b96d211a1b1844db4a407d34d56104, type: 2}
      propertyPath: m_LocalPosition.y
      value: 0
      objectReference: {fileID: 0}
    - target: {fileID: 4605653821508802, guid: 66b96d211a1b1844db4a407d34d56104, type: 2}
      propertyPath: m_LocalPosition.z
      value: 0
      objectReference: {fileID: 0}
    - target: {fileID: 4605653821508802, guid: 66b96d211a1b1844db4a407d34d56104, type: 2}
      propertyPath: m_LocalRotation.x
      value: 0.000000021855694
      objectReference: {fileID: 0}
    - target: {fileID: 4605653821508802, guid: 66b96d211a1b1844db4a407d34d56104, type: 2}
      propertyPath: m_LocalRotation.y
      value: -0
      objectReference: {fileID: 0}
    - target: {fileID: 4605653821508802, guid: 66b96d211a1b1844db4a407d34d56104, type: 2}
      propertyPath: m_LocalRotation.z
      value: -0
      objectReference: {fileID: 0}
    - target: {fileID: 4605653821508802, guid: 66b96d211a1b1844db4a407d34d56104, type: 2}
      propertyPath: m_LocalRotation.w
      value: 1
      objectReference: {fileID: 0}
    - target: {fileID: 4605653821508802, guid: 66b96d211a1b1844db4a407d34d56104, type: 2}
      propertyPath: m_RootOrder
      value: 7
      objectReference: {fileID: 0}
    m_RemovedComponents: []
  m_ParentPrefab: {fileID: 100100000, guid: 66b96d211a1b1844db4a407d34d56104, type: 2}
  m_RootGameObject: {fileID: 1357551701}
  m_IsPrefabParent: 0
--- !u!4 &915018658
Transform:
  m_ObjectHideFlags: 0
  m_PrefabParentObject: {fileID: 4605653821508802, guid: 66b96d211a1b1844db4a407d34d56104,
    type: 2}
  m_PrefabInternal: {fileID: 915018657}
  m_GameObject: {fileID: 1357551701}
  m_LocalRotation: {x: 0.000000021855694, y: -0, z: -0, w: 1}
  m_LocalPosition: {x: 1.22577, y: 0, z: 0}
  m_LocalScale: {x: 1, y: 1, z: 1}
  m_Children: []
  m_Father: {fileID: 776336333}
  m_RootOrder: 7
  m_LocalEulerAnglesHint: {x: 0, y: 0, z: 0}
--- !u!1001 &972124951
Prefab:
  m_ObjectHideFlags: 0
  serializedVersion: 2
  m_Modification:
    m_TransformParent: {fileID: 776336333}
    m_Modifications:
    - target: {fileID: 4597483791629558, guid: 8b599e99eefaea44ebe009a9af4be634, type: 2}
      propertyPath: m_LocalPosition.x
      value: -1.0989728
      objectReference: {fileID: 0}
    - target: {fileID: 4597483791629558, guid: 8b599e99eefaea44ebe009a9af4be634, type: 2}
      propertyPath: m_LocalPosition.y
      value: 0
      objectReference: {fileID: 0}
    - target: {fileID: 4597483791629558, guid: 8b599e99eefaea44ebe009a9af4be634, type: 2}
      propertyPath: m_LocalPosition.z
      value: -2.6626751
      objectReference: {fileID: 0}
    - target: {fileID: 4597483791629558, guid: 8b599e99eefaea44ebe009a9af4be634, type: 2}
      propertyPath: m_LocalRotation.x
      value: 0.000000021855694
      objectReference: {fileID: 0}
    - target: {fileID: 4597483791629558, guid: 8b599e99eefaea44ebe009a9af4be634, type: 2}
      propertyPath: m_LocalRotation.y
      value: -0
      objectReference: {fileID: 0}
    - target: {fileID: 4597483791629558, guid: 8b599e99eefaea44ebe009a9af4be634, type: 2}
      propertyPath: m_LocalRotation.z
      value: -0
      objectReference: {fileID: 0}
    - target: {fileID: 4597483791629558, guid: 8b599e99eefaea44ebe009a9af4be634, type: 2}
      propertyPath: m_LocalRotation.w
      value: 1
      objectReference: {fileID: 0}
    - target: {fileID: 4597483791629558, guid: 8b599e99eefaea44ebe009a9af4be634, type: 2}
      propertyPath: m_RootOrder
      value: 10
      objectReference: {fileID: 0}
    m_RemovedComponents: []
  m_ParentPrefab: {fileID: 100100000, guid: 8b599e99eefaea44ebe009a9af4be634, type: 2}
  m_RootGameObject: {fileID: 423384680}
  m_IsPrefabParent: 0
--- !u!4 &972124952
Transform:
  m_ObjectHideFlags: 0
  m_PrefabParentObject: {fileID: 4597483791629558, guid: 8b599e99eefaea44ebe009a9af4be634,
    type: 2}
  m_PrefabInternal: {fileID: 972124951}
  m_GameObject: {fileID: 423384680}
  m_LocalRotation: {x: 0.000000021855694, y: -0, z: -0, w: 1}
  m_LocalPosition: {x: -1.0989728, y: 0, z: -2.6626751}
  m_LocalScale: {x: 1, y: 1, z: 1}
  m_Children: []
  m_Father: {fileID: 776336333}
  m_RootOrder: 10
  m_LocalEulerAnglesHint: {x: 0, y: 0, z: 0}
--- !u!1 &1072963594
GameObject:
  m_ObjectHideFlags: 0
  m_PrefabParentObject: {fileID: 0}
  m_PrefabInternal: {fileID: 0}
  serializedVersion: 5
  m_Component:
  - component: {fileID: 1072963599}
  - component: {fileID: 1072963598}
  - component: {fileID: 1072963597}
  - component: {fileID: 1072963596}
  - component: {fileID: 1072963595}
  m_Layer: 0
  m_Name: Main Camera
  m_TagString: MainCamera
  m_Icon: {fileID: 0}
  m_NavMeshLayer: 0
  m_StaticEditorFlags: 0
  m_IsActive: 1
--- !u!81 &1072963595
AudioListener:
  m_ObjectHideFlags: 0
  m_PrefabParentObject: {fileID: 0}
  m_PrefabInternal: {fileID: 0}
  m_GameObject: {fileID: 1072963594}
  m_Enabled: 1
--- !u!124 &1072963596
Behaviour:
  m_ObjectHideFlags: 0
  m_PrefabParentObject: {fileID: 0}
  m_PrefabInternal: {fileID: 0}
  m_GameObject: {fileID: 1072963594}
  m_Enabled: 1
--- !u!92 &1072963597
Behaviour:
  m_ObjectHideFlags: 0
  m_PrefabParentObject: {fileID: 0}
  m_PrefabInternal: {fileID: 0}
  m_GameObject: {fileID: 1072963594}
  m_Enabled: 1
--- !u!20 &1072963598
Camera:
  m_ObjectHideFlags: 0
  m_PrefabParentObject: {fileID: 0}
  m_PrefabInternal: {fileID: 0}
  m_GameObject: {fileID: 1072963594}
  m_Enabled: 1
  serializedVersion: 2
  m_ClearFlags: 1
  m_BackGroundColor: {r: 0.19215687, g: 0.3019608, b: 0.4745098, a: 0}
  m_NormalizedViewPortRect:
    serializedVersion: 2
    x: 0
    y: 0
    width: 1
    height: 1
  near clip plane: 0.3
  far clip plane: 1000
  field of view: 60
  orthographic: 0
  orthographic size: 5
  m_Depth: -1
  m_CullingMask:
    serializedVersion: 2
    m_Bits: 4294967295
  m_RenderingPath: -1
  m_TargetTexture: {fileID: 0}
  m_TargetDisplay: 0
  m_TargetEye: 3
  m_HDR: 0
  m_AllowMSAA: 1
  m_ForceIntoRT: 0
  m_OcclusionCulling: 1
  m_StereoConvergence: 10
  m_StereoSeparation: 0.022
--- !u!4 &1072963599
Transform:
  m_ObjectHideFlags: 0
  m_PrefabParentObject: {fileID: 0}
  m_PrefabInternal: {fileID: 0}
  m_GameObject: {fileID: 1072963594}
  m_LocalRotation: {x: 0.4806928, y: -0, z: -0, w: 0.87688905}
  m_LocalPosition: {x: 0, y: 4.76, z: -3.83}
  m_LocalScale: {x: 1, y: 1, z: 1}
  m_Children: []
  m_Father: {fileID: 0}
  m_RootOrder: 0
  m_LocalEulerAnglesHint: {x: 57.461002, y: 0, z: 0}
--- !u!1 &1101433864
GameObject:
  m_ObjectHideFlags: 0
  m_PrefabParentObject: {fileID: 1414566969523494, guid: 5c51c0a1752309d498e4db585be3fd67,
    type: 2}
  m_PrefabInternal: {fileID: 1855337410}
  serializedVersion: 5
  m_Component:
  - component: {fileID: 1855337411}
  - component: {fileID: 1101433866}
  - component: {fileID: 1101433865}
  m_Layer: 0
  m_Name: StarSparrow_Weapon_Right
  m_TagString: Untagged
  m_Icon: {fileID: 0}
  m_NavMeshLayer: 0
  m_StaticEditorFlags: 0
  m_IsActive: 1
--- !u!23 &1101433865
MeshRenderer:
  m_ObjectHideFlags: 0
  m_PrefabParentObject: {fileID: 23950142915970608, guid: 5c51c0a1752309d498e4db585be3fd67,
    type: 2}
  m_PrefabInternal: {fileID: 1855337410}
  m_GameObject: {fileID: 1101433864}
  m_Enabled: 1
  m_CastShadows: 1
  m_ReceiveShadows: 1
  m_DynamicOccludee: 1
  m_MotionVectors: 1
  m_LightProbeUsage: 1
  m_ReflectionProbeUsage: 1
  m_Materials:
  - {fileID: 2100000, guid: 786dec18edde8a14289922c9e2d93ccd, type: 2}
  m_StaticBatchInfo:
    firstSubMesh: 0
    subMeshCount: 0
  m_StaticBatchRoot: {fileID: 0}
  m_ProbeAnchor: {fileID: 0}
  m_LightProbeVolumeOverride: {fileID: 0}
  m_ScaleInLightmap: 1
  m_PreserveUVs: 0
  m_IgnoreNormalsForChartDetection: 0
  m_ImportantGI: 0
  m_StitchLightmapSeams: 0
  m_SelectedEditorRenderState: 3
  m_MinimumChartSize: 4
  m_AutoUVMaxDistance: 0.5
  m_AutoUVMaxAngle: 89
  m_LightmapParameters: {fileID: 0}
  m_SortingLayerID: 0
  m_SortingLayer: 0
  m_SortingOrder: 0
--- !u!33 &1101433866
MeshFilter:
  m_ObjectHideFlags: 0
  m_PrefabParentObject: {fileID: 33832304175853388, guid: 5c51c0a1752309d498e4db585be3fd67,
    type: 2}
  m_PrefabInternal: {fileID: 1855337410}
  m_GameObject: {fileID: 1101433864}
  m_Mesh: {fileID: 4300016, guid: c9b3d1ee538a9e649acda3363ad265d7, type: 3}
--- !u!1001 &1111136357
Prefab:
  m_ObjectHideFlags: 0
  serializedVersion: 2
  m_Modification:
    m_TransformParent: {fileID: 776336333}
    m_Modifications:
    - target: {fileID: 4636713660978152, guid: c85a66e1892b9d545990ad291b2ce3b8, type: 2}
      propertyPath: m_LocalPosition.x
      value: -0.00000007629394
      objectReference: {fileID: 0}
    - target: {fileID: 4636713660978152, guid: c85a66e1892b9d545990ad291b2ce3b8, type: 2}
      propertyPath: m_LocalPosition.y
      value: 0
      objectReference: {fileID: 0}
    - target: {fileID: 4636713660978152, guid: c85a66e1892b9d545990ad291b2ce3b8, type: 2}
      propertyPath: m_LocalPosition.z
      value: 0.4926155
      objectReference: {fileID: 0}
    - target: {fileID: 4636713660978152, guid: c85a66e1892b9d545990ad291b2ce3b8, type: 2}
      propertyPath: m_LocalRotation.x
      value: 0.000000021855694
      objectReference: {fileID: 0}
    - target: {fileID: 4636713660978152, guid: c85a66e1892b9d545990ad291b2ce3b8, type: 2}
      propertyPath: m_LocalRotation.y
      value: -0
      objectReference: {fileID: 0}
    - target: {fileID: 4636713660978152, guid: c85a66e1892b9d545990ad291b2ce3b8, type: 2}
      propertyPath: m_LocalRotation.z
      value: -0
      objectReference: {fileID: 0}
    - target: {fileID: 4636713660978152, guid: c85a66e1892b9d545990ad291b2ce3b8, type: 2}
      propertyPath: m_LocalRotation.w
      value: 1
      objectReference: {fileID: 0}
    - target: {fileID: 4636713660978152, guid: c85a66e1892b9d545990ad291b2ce3b8, type: 2}
      propertyPath: m_RootOrder
      value: 0
      objectReference: {fileID: 0}
    m_RemovedComponents: []
  m_ParentPrefab: {fileID: 100100000, guid: c85a66e1892b9d545990ad291b2ce3b8, type: 2}
  m_RootGameObject: {fileID: 1620002078}
  m_IsPrefabParent: 0
--- !u!4 &1111136358
Transform:
  m_ObjectHideFlags: 0
  m_PrefabParentObject: {fileID: 4636713660978152, guid: c85a66e1892b9d545990ad291b2ce3b8,
    type: 2}
  m_PrefabInternal: {fileID: 1111136357}
  m_GameObject: {fileID: 1620002078}
  m_LocalRotation: {x: 0.000000021855694, y: -0, z: -0, w: 1}
  m_LocalPosition: {x: -0.00000007629394, y: 0, z: 0.4926155}
  m_LocalScale: {x: 1, y: 1, z: 1}
  m_Children: []
  m_Father: {fileID: 776336333}
  m_RootOrder: 0
  m_LocalEulerAnglesHint: {x: 0, y: 0, z: 0}
--- !u!1 &1116285351
GameObject:
  m_ObjectHideFlags: 0
  m_PrefabParentObject: {fileID: 1001244213800122, guid: 5beefef5814c76a44ab94e38b53a6277,
    type: 2}
  m_PrefabInternal: {fileID: 747909531}
  serializedVersion: 5
  m_Component:
  - component: {fileID: 747909532}
  - component: {fileID: 1116285353}
  - component: {fileID: 1116285352}
  m_Layer: 0
  m_Name: StarSparrow_Wing_2_Left
  m_TagString: Untagged
  m_Icon: {fileID: 0}
  m_NavMeshLayer: 0
  m_StaticEditorFlags: 0
  m_IsActive: 1
--- !u!23 &1116285352
MeshRenderer:
  m_ObjectHideFlags: 0
  m_PrefabParentObject: {fileID: 23392743613829694, guid: 5beefef5814c76a44ab94e38b53a6277,
    type: 2}
  m_PrefabInternal: {fileID: 747909531}
  m_GameObject: {fileID: 1116285351}
  m_Enabled: 1
  m_CastShadows: 1
  m_ReceiveShadows: 1
  m_DynamicOccludee: 1
  m_MotionVectors: 1
  m_LightProbeUsage: 1
  m_ReflectionProbeUsage: 1
  m_Materials:
  - {fileID: 2100000, guid: 786dec18edde8a14289922c9e2d93ccd, type: 2}
  m_StaticBatchInfo:
    firstSubMesh: 0
    subMeshCount: 0
  m_StaticBatchRoot: {fileID: 0}
  m_ProbeAnchor: {fileID: 0}
  m_LightProbeVolumeOverride: {fileID: 0}
  m_ScaleInLightmap: 1
  m_PreserveUVs: 0
  m_IgnoreNormalsForChartDetection: 0
  m_ImportantGI: 0
  m_StitchLightmapSeams: 0
  m_SelectedEditorRenderState: 3
  m_MinimumChartSize: 4
  m_AutoUVMaxDistance: 0.5
  m_AutoUVMaxAngle: 89
  m_LightmapParameters: {fileID: 0}
  m_SortingLayerID: 0
  m_SortingLayer: 0
  m_SortingOrder: 0
--- !u!33 &1116285353
MeshFilter:
  m_ObjectHideFlags: 0
  m_PrefabParentObject: {fileID: 33449887143791034, guid: 5beefef5814c76a44ab94e38b53a6277,
    type: 2}
  m_PrefabInternal: {fileID: 747909531}
  m_GameObject: {fileID: 1116285351}
  m_Mesh: {fileID: 4300010, guid: c9b3d1ee538a9e649acda3363ad265d7, type: 3}
--- !u!1 &1256800650
GameObject:
  m_ObjectHideFlags: 0
  m_PrefabParentObject: {fileID: 1844061802374026, guid: 8b3f382b3ba65624297e65a2629e94c2,
    type: 2}
  m_PrefabInternal: {fileID: 1669586786}
  serializedVersion: 5
  m_Component:
  - component: {fileID: 1669586787}
  - component: {fileID: 1256800652}
  - component: {fileID: 1256800651}
  m_Layer: 0
  m_Name: StarSparrow_Weapon_Left
  m_TagString: Untagged
  m_Icon: {fileID: 0}
  m_NavMeshLayer: 0
  m_StaticEditorFlags: 0
  m_IsActive: 1
--- !u!23 &1256800651
MeshRenderer:
  m_ObjectHideFlags: 0
  m_PrefabParentObject: {fileID: 23669002893454030, guid: 8b3f382b3ba65624297e65a2629e94c2,
    type: 2}
  m_PrefabInternal: {fileID: 1669586786}
  m_GameObject: {fileID: 1256800650}
  m_Enabled: 1
  m_CastShadows: 1
  m_ReceiveShadows: 1
  m_DynamicOccludee: 1
  m_MotionVectors: 1
  m_LightProbeUsage: 1
  m_ReflectionProbeUsage: 1
  m_Materials:
  - {fileID: 2100000, guid: 786dec18edde8a14289922c9e2d93ccd, type: 2}
  m_StaticBatchInfo:
    firstSubMesh: 0
    subMeshCount: 0
  m_StaticBatchRoot: {fileID: 0}
  m_ProbeAnchor: {fileID: 0}
  m_LightProbeVolumeOverride: {fileID: 0}
  m_ScaleInLightmap: 1
  m_PreserveUVs: 0
  m_IgnoreNormalsForChartDetection: 0
  m_ImportantGI: 0
  m_StitchLightmapSeams: 0
  m_SelectedEditorRenderState: 3
  m_MinimumChartSize: 4
  m_AutoUVMaxDistance: 0.5
  m_AutoUVMaxAngle: 89
  m_LightmapParameters: {fileID: 0}
  m_SortingLayerID: 0
  m_SortingLayer: 0
  m_SortingOrder: 0
--- !u!33 &1256800652
MeshFilter:
  m_ObjectHideFlags: 0
  m_PrefabParentObject: {fileID: 33502507769402276, guid: 8b3f382b3ba65624297e65a2629e94c2,
    type: 2}
  m_PrefabInternal: {fileID: 1669586786}
  m_GameObject: {fileID: 1256800650}
  m_Mesh: {fileID: 4300006, guid: c9b3d1ee538a9e649acda3363ad265d7, type: 3}
--- !u!1 &1321554098
GameObject:
  m_ObjectHideFlags: 0
  m_PrefabParentObject: {fileID: 1913840307556444, guid: 95f262cc55d2a584aa5e6e40e9aaf743,
    type: 2}
  m_PrefabInternal: {fileID: 91410344}
  serializedVersion: 5
  m_Component:
  - component: {fileID: 91410345}
  - component: {fileID: 1321554100}
  - component: {fileID: 1321554099}
  m_Layer: 0
  m_Name: StarSparrow_Thruster
  m_TagString: Untagged
  m_Icon: {fileID: 0}
  m_NavMeshLayer: 0
  m_StaticEditorFlags: 0
  m_IsActive: 1
--- !u!23 &1321554099
MeshRenderer:
  m_ObjectHideFlags: 0
  m_PrefabParentObject: {fileID: 23425519901035808, guid: 95f262cc55d2a584aa5e6e40e9aaf743,
    type: 2}
  m_PrefabInternal: {fileID: 91410344}
  m_GameObject: {fileID: 1321554098}
  m_Enabled: 1
  m_CastShadows: 1
  m_ReceiveShadows: 1
  m_DynamicOccludee: 1
  m_MotionVectors: 1
  m_LightProbeUsage: 1
  m_ReflectionProbeUsage: 1
  m_Materials:
  - {fileID: 2100000, guid: 786dec18edde8a14289922c9e2d93ccd, type: 2}
  m_StaticBatchInfo:
    firstSubMesh: 0
    subMeshCount: 0
  m_StaticBatchRoot: {fileID: 0}
  m_ProbeAnchor: {fileID: 0}
  m_LightProbeVolumeOverride: {fileID: 0}
  m_ScaleInLightmap: 1
  m_PreserveUVs: 0
  m_IgnoreNormalsForChartDetection: 0
  m_ImportantGI: 0
  m_StitchLightmapSeams: 0
  m_SelectedEditorRenderState: 3
  m_MinimumChartSize: 4
  m_AutoUVMaxDistance: 0.5
  m_AutoUVMaxAngle: 89
  m_LightmapParameters: {fileID: 0}
  m_SortingLayerID: 0
  m_SortingLayer: 0
  m_SortingOrder: 0
--- !u!33 &1321554100
MeshFilter:
  m_ObjectHideFlags: 0
  m_PrefabParentObject: {fileID: 33716404235950748, guid: 95f262cc55d2a584aa5e6e40e9aaf743,
    type: 2}
  m_PrefabInternal: {fileID: 91410344}
  m_GameObject: {fileID: 1321554098}
  m_Mesh: {fileID: 4300014, guid: c9b3d1ee538a9e649acda3363ad265d7, type: 3}
--- !u!1001 &1353142621
Prefab:
  m_ObjectHideFlags: 0
  serializedVersion: 2
  m_Modification:
    m_TransformParent: {fileID: 776336333}
    m_Modifications:
    - target: {fileID: 4020598391731252, guid: 71666c036bf577f479811efd6d1fa496, type: 2}
      propertyPath: m_LocalPosition.x
      value: 1.04176
      objectReference: {fileID: 0}
    - target: {fileID: 4020598391731252, guid: 71666c036bf577f479811efd6d1fa496, type: 2}
      propertyPath: m_LocalPosition.y
      value: 0
      objectReference: {fileID: 0}
    - target: {fileID: 4020598391731252, guid: 71666c036bf577f479811efd6d1fa496, type: 2}
      propertyPath: m_LocalPosition.z
      value: -1.7986872
      objectReference: {fileID: 0}
    - target: {fileID: 4020598391731252, guid: 71666c036bf577f479811efd6d1fa496, type: 2}
      propertyPath: m_LocalRotation.x
      value: 0.000000021855694
      objectReference: {fileID: 0}
    - target: {fileID: 4020598391731252, guid: 71666c036bf577f479811efd6d1fa496, type: 2}
      propertyPath: m_LocalRotation.y
      value: -0
      objectReference: {fileID: 0}
    - target: {fileID: 4020598391731252, guid: 71666c036bf577f479811efd6d1fa496, type: 2}
      propertyPath: m_LocalRotation.z
      value: -0
      objectReference: {fileID: 0}
    - target: {fileID: 4020598391731252, guid: 71666c036bf577f479811efd6d1fa496, type: 2}
      propertyPath: m_LocalRotation.w
      value: 1
      objectReference: {fileID: 0}
    - target: {fileID: 4020598391731252, guid: 71666c036bf577f479811efd6d1fa496, type: 2}
      propertyPath: m_RootOrder
      value: 9
      objectReference: {fileID: 0}
    m_RemovedComponents: []
  m_ParentPrefab: {fileID: 100100000, guid: 71666c036bf577f479811efd6d1fa496, type: 2}
  m_RootGameObject: {fileID: 1603713165}
  m_IsPrefabParent: 0
--- !u!4 &1353142622
Transform:
  m_ObjectHideFlags: 0
  m_PrefabParentObject: {fileID: 4020598391731252, guid: 71666c036bf577f479811efd6d1fa496,
    type: 2}
  m_PrefabInternal: {fileID: 1353142621}
  m_GameObject: {fileID: 1603713165}
  m_LocalRotation: {x: 0.000000021855694, y: -0, z: -0, w: 1}
  m_LocalPosition: {x: 1.04176, y: 0, z: -1.7986872}
  m_LocalScale: {x: 1, y: 1, z: 1}
  m_Children: []
  m_Father: {fileID: 776336333}
  m_RootOrder: 9
  m_LocalEulerAnglesHint: {x: 0, y: 0, z: 0}
--- !u!1 &1357551701
GameObject:
  m_ObjectHideFlags: 0
  m_PrefabParentObject: {fileID: 1184841671580936, guid: 66b96d211a1b1844db4a407d34d56104,
    type: 2}
  m_PrefabInternal: {fileID: 915018657}
  serializedVersion: 5
  m_Component:
  - component: {fileID: 915018658}
  - component: {fileID: 1357551703}
  - component: {fileID: 1357551702}
  m_Layer: 0
  m_Name: StarSparrow_Wing_1_Right
  m_TagString: Untagged
  m_Icon: {fileID: 0}
  m_NavMeshLayer: 0
  m_StaticEditorFlags: 0
  m_IsActive: 1
--- !u!23 &1357551702
MeshRenderer:
  m_ObjectHideFlags: 0
  m_PrefabParentObject: {fileID: 23425694586764504, guid: 66b96d211a1b1844db4a407d34d56104,
    type: 2}
  m_PrefabInternal: {fileID: 915018657}
  m_GameObject: {fileID: 1357551701}
  m_Enabled: 1
  m_CastShadows: 1
  m_ReceiveShadows: 1
  m_DynamicOccludee: 1
  m_MotionVectors: 1
  m_LightProbeUsage: 1
  m_ReflectionProbeUsage: 1
  m_Materials:
  - {fileID: 2100000, guid: 786dec18edde8a14289922c9e2d93ccd, type: 2}
  m_StaticBatchInfo:
    firstSubMesh: 0
    subMeshCount: 0
  m_StaticBatchRoot: {fileID: 0}
  m_ProbeAnchor: {fileID: 0}
  m_LightProbeVolumeOverride: {fileID: 0}
  m_ScaleInLightmap: 1
  m_PreserveUVs: 0
  m_IgnoreNormalsForChartDetection: 0
  m_ImportantGI: 0
  m_StitchLightmapSeams: 0
  m_SelectedEditorRenderState: 3
  m_MinimumChartSize: 4
  m_AutoUVMaxDistance: 0.5
  m_AutoUVMaxAngle: 89
  m_LightmapParameters: {fileID: 0}
  m_SortingLayerID: 0
  m_SortingLayer: 0
  m_SortingOrder: 0
--- !u!33 &1357551703
MeshFilter:
  m_ObjectHideFlags: 0
  m_PrefabParentObject: {fileID: 33795292174019270, guid: 66b96d211a1b1844db4a407d34d56104,
    type: 2}
  m_PrefabInternal: {fileID: 915018657}
  m_GameObject: {fileID: 1357551701}
  m_Mesh: {fileID: 4300018, guid: c9b3d1ee538a9e649acda3363ad265d7, type: 3}
--- !u!1001 &1405115934
Prefab:
  m_ObjectHideFlags: 0
  serializedVersion: 2
  m_Modification:
    m_TransformParent: {fileID: 776336333}
    m_Modifications:
    - target: {fileID: 4462753164285202, guid: 5ecc4469a918f9d4eb84720f85f7d57e, type: 2}
      propertyPath: m_LocalPosition.x
      value: -0.0000006103515
      objectReference: {fileID: 0}
    - target: {fileID: 4462753164285202, guid: 5ecc4469a918f9d4eb84720f85f7d57e, type: 2}
      propertyPath: m_LocalPosition.y
      value: 0
      objectReference: {fileID: 0}
    - target: {fileID: 4462753164285202, guid: 5ecc4469a918f9d4eb84720f85f7d57e, type: 2}
      propertyPath: m_LocalPosition.z
      value: -2.0841718
      objectReference: {fileID: 0}
    - target: {fileID: 4462753164285202, guid: 5ecc4469a918f9d4eb84720f85f7d57e, type: 2}
      propertyPath: m_LocalRotation.x
      value: 0.000000021855694
      objectReference: {fileID: 0}
    - target: {fileID: 4462753164285202, guid: 5ecc4469a918f9d4eb84720f85f7d57e, type: 2}
      propertyPath: m_LocalRotation.y
      value: -0
      objectReference: {fileID: 0}
    - target: {fileID: 4462753164285202, guid: 5ecc4469a918f9d4eb84720f85f7d57e, type: 2}
      propertyPath: m_LocalRotation.z
      value: -0
      objectReference: {fileID: 0}
    - target: {fileID: 4462753164285202, guid: 5ecc4469a918f9d4eb84720f85f7d57e, type: 2}
      propertyPath: m_LocalRotation.w
      value: 1
      objectReference: {fileID: 0}
    - target: {fileID: 4462753164285202, guid: 5ecc4469a918f9d4eb84720f85f7d57e, type: 2}
      propertyPath: m_RootOrder
      value: 1
      objectReference: {fileID: 0}
    m_RemovedComponents: []
  m_ParentPrefab: {fileID: 100100000, guid: 5ecc4469a918f9d4eb84720f85f7d57e, type: 2}
  m_RootGameObject: {fileID: 1617608072}
  m_IsPrefabParent: 0
--- !u!4 &1405115935
Transform:
  m_ObjectHideFlags: 0
  m_PrefabParentObject: {fileID: 4462753164285202, guid: 5ecc4469a918f9d4eb84720f85f7d57e,
    type: 2}
  m_PrefabInternal: {fileID: 1405115934}
  m_GameObject: {fileID: 1617608072}
  m_LocalRotation: {x: 0.000000021855694, y: -0, z: -0, w: 1}
  m_LocalPosition: {x: -0.0000006103515, y: 0, z: -2.0841718}
  m_LocalScale: {x: 1, y: 1, z: 1}
  m_Children: []
  m_Father: {fileID: 776336333}
  m_RootOrder: 1
  m_LocalEulerAnglesHint: {x: 0, y: 0, z: 0}
--- !u!1001 &1566108571
Prefab:
  m_ObjectHideFlags: 0
  serializedVersion: 2
  m_Modification:
    m_TransformParent: {fileID: 776336333}
    m_Modifications:
    - target: {fileID: 4254544014578084, guid: 004958d78054f604bba95e0a23bc6744, type: 2}
      propertyPath: m_LocalPosition.x
      value: 1.09897
      objectReference: {fileID: 0}
    - target: {fileID: 4254544014578084, guid: 004958d78054f604bba95e0a23bc6744, type: 2}
      propertyPath: m_LocalPosition.y
      value: 0
      objectReference: {fileID: 0}
    - target: {fileID: 4254544014578084, guid: 004958d78054f604bba95e0a23bc6744, type: 2}
      propertyPath: m_LocalPosition.z
      value: -2.6626751
      objectReference: {fileID: 0}
    - target: {fileID: 4254544014578084, guid: 004958d78054f604bba95e0a23bc6744, type: 2}
      propertyPath: m_LocalRotation.x
      value: 0.000000021855694
      objectReference: {fileID: 0}
    - target: {fileID: 4254544014578084, guid: 004958d78054f604bba95e0a23bc6744, type: 2}
      propertyPath: m_LocalRotation.y
      value: -0
      objectReference: {fileID: 0}
    - target: {fileID: 4254544014578084, guid: 004958d78054f604bba95e0a23bc6744, type: 2}
      propertyPath: m_LocalRotation.z
      value: -0
      objectReference: {fileID: 0}
    - target: {fileID: 4254544014578084, guid: 004958d78054f604bba95e0a23bc6744, type: 2}
      propertyPath: m_LocalRotation.w
      value: 1
      objectReference: {fileID: 0}
    - target: {fileID: 4254544014578084, guid: 004958d78054f604bba95e0a23bc6744, type: 2}
      propertyPath: m_RootOrder
      value: 11
      objectReference: {fileID: 0}
    m_RemovedComponents: []
  m_ParentPrefab: {fileID: 100100000, guid: 004958d78054f604bba95e0a23bc6744, type: 2}
  m_RootGameObject: {fileID: 653689083}
  m_IsPrefabParent: 0
--- !u!4 &1566108572
Transform:
  m_ObjectHideFlags: 0
  m_PrefabParentObject: {fileID: 4254544014578084, guid: 004958d78054f604bba95e0a23bc6744,
    type: 2}
  m_PrefabInternal: {fileID: 1566108571}
  m_GameObject: {fileID: 653689083}
  m_LocalRotation: {x: 0.000000021855694, y: -0, z: -0, w: 1}
  m_LocalPosition: {x: 1.09897, y: 0, z: -2.6626751}
  m_LocalScale: {x: 1, y: 1, z: 1}
  m_Children: []
  m_Father: {fileID: 776336333}
  m_RootOrder: 11
  m_LocalEulerAnglesHint: {x: 0, y: 0, z: 0}
--- !u!1 &1603713165
GameObject:
  m_ObjectHideFlags: 0
  m_PrefabParentObject: {fileID: 1078227698839146, guid: 71666c036bf577f479811efd6d1fa496,
    type: 2}
  m_PrefabInternal: {fileID: 1353142621}
  serializedVersion: 5
  m_Component:
  - component: {fileID: 1353142622}
  - component: {fileID: 1603713167}
  - component: {fileID: 1603713166}
  m_Layer: 0
  m_Name: StarSparrow_Wing_2_Right
  m_TagString: Untagged
  m_Icon: {fileID: 0}
  m_NavMeshLayer: 0
  m_StaticEditorFlags: 0
  m_IsActive: 1
--- !u!23 &1603713166
MeshRenderer:
  m_ObjectHideFlags: 0
  m_PrefabParentObject: {fileID: 23615708242447198, guid: 71666c036bf577f479811efd6d1fa496,
    type: 2}
  m_PrefabInternal: {fileID: 1353142621}
  m_GameObject: {fileID: 1603713165}
  m_Enabled: 1
  m_CastShadows: 1
  m_ReceiveShadows: 1
  m_DynamicOccludee: 1
  m_MotionVectors: 1
  m_LightProbeUsage: 1
  m_ReflectionProbeUsage: 1
  m_Materials:
  - {fileID: 2100000, guid: 786dec18edde8a14289922c9e2d93ccd, type: 2}
  m_StaticBatchInfo:
    firstSubMesh: 0
    subMeshCount: 0
  m_StaticBatchRoot: {fileID: 0}
  m_ProbeAnchor: {fileID: 0}
  m_LightProbeVolumeOverride: {fileID: 0}
  m_ScaleInLightmap: 1
  m_PreserveUVs: 0
  m_IgnoreNormalsForChartDetection: 0
  m_ImportantGI: 0
  m_StitchLightmapSeams: 0
  m_SelectedEditorRenderState: 3
  m_MinimumChartSize: 4
  m_AutoUVMaxDistance: 0.5
  m_AutoUVMaxAngle: 89
  m_LightmapParameters: {fileID: 0}
  m_SortingLayerID: 0
  m_SortingLayer: 0
  m_SortingOrder: 0
--- !u!33 &1603713167
MeshFilter:
  m_ObjectHideFlags: 0
  m_PrefabParentObject: {fileID: 33003883159780968, guid: 71666c036bf577f479811efd6d1fa496,
    type: 2}
  m_PrefabInternal: {fileID: 1353142621}
  m_GameObject: {fileID: 1603713165}
  m_Mesh: {fileID: 4300020, guid: c9b3d1ee538a9e649acda3363ad265d7, type: 3}
--- !u!1 &1607167224
GameObject:
  m_ObjectHideFlags: 0
  m_PrefabParentObject: {fileID: 0}
  m_PrefabInternal: {fileID: 0}
  serializedVersion: 5
  m_Component:
  - component: {fileID: 1607167226}
  - component: {fileID: 1607167225}
  m_Layer: 0
  m_Name: Directional Light
  m_TagString: Untagged
  m_Icon: {fileID: 0}
  m_NavMeshLayer: 0
  m_StaticEditorFlags: 0
  m_IsActive: 1
--- !u!108 &1607167225
Light:
  m_ObjectHideFlags: 0
  m_PrefabParentObject: {fileID: 0}
  m_PrefabInternal: {fileID: 0}
  m_GameObject: {fileID: 1607167224}
  m_Enabled: 1
  serializedVersion: 8
  m_Type: 1
  m_Color: {r: 1, g: 0.95686275, b: 0.8392157, a: 1}
  m_Intensity: 1
  m_Range: 10
  m_SpotAngle: 30
  m_CookieSize: 10
  m_Shadows:
    m_Type: 2
    m_Resolution: -1
    m_CustomResolution: -1
    m_Strength: 1
    m_Bias: 0.05
    m_NormalBias: 0.4
    m_NearPlane: 0.2
  m_Cookie: {fileID: 0}
  m_DrawHalo: 0
  m_Flare: {fileID: 0}
  m_RenderMode: 0
  m_CullingMask:
    serializedVersion: 2
    m_Bits: 4294967295
  m_Lightmapping: 4
  m_AreaSize: {x: 1, y: 1}
  m_BounceIntensity: 1
  m_ColorTemperature: 6570
  m_UseColorTemperature: 0
  m_ShadowRadius: 0
  m_ShadowAngle: 0
--- !u!4 &1607167226
Transform:
  m_ObjectHideFlags: 0
  m_PrefabParentObject: {fileID: 0}
  m_PrefabInternal: {fileID: 0}
  m_GameObject: {fileID: 1607167224}
  m_LocalRotation: {x: 0.40821788, y: -0.23456968, z: 0.10938163, w: 0.8754261}
  m_LocalPosition: {x: 0, y: 3, z: 0}
  m_LocalScale: {x: 1, y: 1, z: 1}
  m_Children: []
  m_Father: {fileID: 0}
  m_RootOrder: 1
  m_LocalEulerAnglesHint: {x: 50, y: -30, z: 0}
--- !u!1 &1617608072
GameObject:
  m_ObjectHideFlags: 0
  m_PrefabParentObject: {fileID: 1343611383313626, guid: 5ecc4469a918f9d4eb84720f85f7d57e,
    type: 2}
  m_PrefabInternal: {fileID: 1405115934}
  serializedVersion: 5
  m_Component:
  - component: {fileID: 1405115935}
  - component: {fileID: 1617608074}
  - component: {fileID: 1617608073}
  m_Layer: 0
  m_Name: StarSparrow_Engine
  m_TagString: Untagged
  m_Icon: {fileID: 0}
  m_NavMeshLayer: 0
  m_StaticEditorFlags: 0
  m_IsActive: 1
--- !u!23 &1617608073
MeshRenderer:
  m_ObjectHideFlags: 0
  m_PrefabParentObject: {fileID: 23018047886968568, guid: 5ecc4469a918f9d4eb84720f85f7d57e,
    type: 2}
  m_PrefabInternal: {fileID: 1405115934}
  m_GameObject: {fileID: 1617608072}
  m_Enabled: 1
  m_CastShadows: 1
  m_ReceiveShadows: 1
  m_DynamicOccludee: 1
  m_MotionVectors: 1
  m_LightProbeUsage: 1
  m_ReflectionProbeUsage: 1
  m_Materials:
  - {fileID: 2100000, guid: 786dec18edde8a14289922c9e2d93ccd, type: 2}
  m_StaticBatchInfo:
    firstSubMesh: 0
    subMeshCount: 0
  m_StaticBatchRoot: {fileID: 0}
  m_ProbeAnchor: {fileID: 0}
  m_LightProbeVolumeOverride: {fileID: 0}
  m_ScaleInLightmap: 1
  m_PreserveUVs: 0
  m_IgnoreNormalsForChartDetection: 0
  m_ImportantGI: 0
  m_StitchLightmapSeams: 0
  m_SelectedEditorRenderState: 3
  m_MinimumChartSize: 4
  m_AutoUVMaxDistance: 0.5
  m_AutoUVMaxAngle: 89
  m_LightmapParameters: {fileID: 0}
  m_SortingLayerID: 0
  m_SortingLayer: 0
  m_SortingOrder: 0
--- !u!33 &1617608074
MeshFilter:
  m_ObjectHideFlags: 0
  m_PrefabParentObject: {fileID: 33571624613307086, guid: 5ecc4469a918f9d4eb84720f85f7d57e,
    type: 2}
  m_PrefabInternal: {fileID: 1405115934}
  m_GameObject: {fileID: 1617608072}
  m_Mesh: {fileID: 4300004, guid: c9b3d1ee538a9e649acda3363ad265d7, type: 3}
--- !u!1 &1620002078
GameObject:
  m_ObjectHideFlags: 0
  m_PrefabParentObject: {fileID: 1454708859297028, guid: c85a66e1892b9d545990ad291b2ce3b8,
    type: 2}
  m_PrefabInternal: {fileID: 1111136357}
  serializedVersion: 5
  m_Component:
  - component: {fileID: 1111136358}
  - component: {fileID: 1620002080}
  - component: {fileID: 1620002079}
  m_Layer: 0
  m_Name: StarSparrow_Core
  m_TagString: Untagged
  m_Icon: {fileID: 0}
  m_NavMeshLayer: 0
  m_StaticEditorFlags: 0
  m_IsActive: 1
--- !u!23 &1620002079
MeshRenderer:
  m_ObjectHideFlags: 0
  m_PrefabParentObject: {fileID: 23520489727927246, guid: c85a66e1892b9d545990ad291b2ce3b8,
    type: 2}
  m_PrefabInternal: {fileID: 1111136357}
  m_GameObject: {fileID: 1620002078}
  m_Enabled: 1
  m_CastShadows: 1
  m_ReceiveShadows: 1
  m_DynamicOccludee: 1
  m_MotionVectors: 1
  m_LightProbeUsage: 1
  m_ReflectionProbeUsage: 1
  m_Materials:
  - {fileID: 2100000, guid: 786dec18edde8a14289922c9e2d93ccd, type: 2}
  m_StaticBatchInfo:
    firstSubMesh: 0
    subMeshCount: 0
  m_StaticBatchRoot: {fileID: 0}
  m_ProbeAnchor: {fileID: 0}
  m_LightProbeVolumeOverride: {fileID: 0}
  m_ScaleInLightmap: 1
  m_PreserveUVs: 0
  m_IgnoreNormalsForChartDetection: 0
  m_ImportantGI: 0
  m_StitchLightmapSeams: 0
  m_SelectedEditorRenderState: 3
  m_MinimumChartSize: 4
  m_AutoUVMaxDistance: 0.5
  m_AutoUVMaxAngle: 89
  m_LightmapParameters: {fileID: 0}
  m_SortingLayerID: 0
  m_SortingLayer: 0
  m_SortingOrder: 0
--- !u!33 &1620002080
MeshFilter:
  m_ObjectHideFlags: 0
  m_PrefabParentObject: {fileID: 33167428414360002, guid: c85a66e1892b9d545990ad291b2ce3b8,
    type: 2}
  m_PrefabInternal: {fileID: 1111136357}
  m_GameObject: {fileID: 1620002078}
  m_Mesh: {fileID: 4300002, guid: c9b3d1ee538a9e649acda3363ad265d7, type: 3}
--- !u!1001 &1669586786
Prefab:
  m_ObjectHideFlags: 0
  serializedVersion: 2
  m_Modification:
    m_TransformParent: {fileID: 776336333}
    m_Modifications:
    - target: {fileID: 4083997911670778, guid: 8b3f382b3ba65624297e65a2629e94c2, type: 2}
      propertyPath: m_LocalPosition.x
      value: -1.2072839
      objectReference: {fileID: 0}
    - target: {fileID: 4083997911670778, guid: 8b3f382b3ba65624297e65a2629e94c2, type: 2}
      propertyPath: m_LocalPosition.y
      value: 0
      objectReference: {fileID: 0}
    - target: {fileID: 4083997911670778, guid: 8b3f382b3ba65624297e65a2629e94c2, type: 2}
      propertyPath: m_LocalPosition.z
      value: 2.6027951
      objectReference: {fileID: 0}
    - target: {fileID: 4083997911670778, guid: 8b3f382b3ba65624297e65a2629e94c2, type: 2}
      propertyPath: m_LocalRotation.x
      value: 0.000000021855694
      objectReference: {fileID: 0}
    - target: {fileID: 4083997911670778, guid: 8b3f382b3ba65624297e65a2629e94c2, type: 2}
      propertyPath: m_LocalRotation.y
      value: -0
      objectReference: {fileID: 0}
    - target: {fileID: 4083997911670778, guid: 8b3f382b3ba65624297e65a2629e94c2, type: 2}
      propertyPath: m_LocalRotation.z
      value: -0
      objectReference: {fileID: 0}
    - target: {fileID: 4083997911670778, guid: 8b3f382b3ba65624297e65a2629e94c2, type: 2}
      propertyPath: m_LocalRotation.w
      value: 1
      objectReference: {fileID: 0}
    - target: {fileID: 4083997911670778, guid: 8b3f382b3ba65624297e65a2629e94c2, type: 2}
      propertyPath: m_RootOrder
      value: 4
      objectReference: {fileID: 0}
    m_RemovedComponents: []
  m_ParentPrefab: {fileID: 100100000, guid: 8b3f382b3ba65624297e65a2629e94c2, type: 2}
  m_RootGameObject: {fileID: 1256800650}
  m_IsPrefabParent: 0
--- !u!4 &1669586787
Transform:
  m_ObjectHideFlags: 0
  m_PrefabParentObject: {fileID: 4083997911670778, guid: 8b3f382b3ba65624297e65a2629e94c2,
    type: 2}
  m_PrefabInternal: {fileID: 1669586786}
  m_GameObject: {fileID: 1256800650}
  m_LocalRotation: {x: 0.000000021855694, y: -0, z: -0, w: 1}
  m_LocalPosition: {x: -1.2072839, y: 0, z: 2.6027951}
  m_LocalScale: {x: 1, y: 1, z: 1}
  m_Children: []
  m_Father: {fileID: 776336333}
  m_RootOrder: 4
  m_LocalEulerAnglesHint: {x: 0, y: 0, z: 0}
--- !u!1001 &1855337410
Prefab:
  m_ObjectHideFlags: 0
  serializedVersion: 2
  m_Modification:
    m_TransformParent: {fileID: 776336333}
    m_Modifications:
    - target: {fileID: 4007394176231134, guid: 5c51c0a1752309d498e4db585be3fd67, type: 2}
      propertyPath: m_LocalPosition.x
      value: 1.207284
      objectReference: {fileID: 0}
    - target: {fileID: 4007394176231134, guid: 5c51c0a1752309d498e4db585be3fd67, type: 2}
      propertyPath: m_LocalPosition.y
      value: 0
      objectReference: {fileID: 0}
    - target: {fileID: 4007394176231134, guid: 5c51c0a1752309d498e4db585be3fd67, type: 2}
      propertyPath: m_LocalPosition.z
      value: 2.6027951
      objectReference: {fileID: 0}
    - target: {fileID: 4007394176231134, guid: 5c51c0a1752309d498e4db585be3fd67, type: 2}
      propertyPath: m_LocalRotation.x
      value: 0.000000021855694
      objectReference: {fileID: 0}
    - target: {fileID: 4007394176231134, guid: 5c51c0a1752309d498e4db585be3fd67, type: 2}
      propertyPath: m_LocalRotation.y
      value: -0
      objectReference: {fileID: 0}
    - target: {fileID: 4007394176231134, guid: 5c51c0a1752309d498e4db585be3fd67, type: 2}
      propertyPath: m_LocalRotation.z
      value: -0
      objectReference: {fileID: 0}
    - target: {fileID: 4007394176231134, guid: 5c51c0a1752309d498e4db585be3fd67, type: 2}
      propertyPath: m_LocalRotation.w
      value: 1
      objectReference: {fileID: 0}
    - target: {fileID: 4007394176231134, guid: 5c51c0a1752309d498e4db585be3fd67, type: 2}
      propertyPath: m_RootOrder
      value: 5
      objectReference: {fileID: 0}
    m_RemovedComponents: []
  m_ParentPrefab: {fileID: 100100000, guid: 5c51c0a1752309d498e4db585be3fd67, type: 2}
  m_RootGameObject: {fileID: 1101433864}
  m_IsPrefabParent: 0
--- !u!4 &1855337411
Transform:
  m_ObjectHideFlags: 0
  m_PrefabParentObject: {fileID: 4007394176231134, guid: 5c51c0a1752309d498e4db585be3fd67,
    type: 2}
  m_PrefabInternal: {fileID: 1855337410}
  m_GameObject: {fileID: 1101433864}
  m_LocalRotation: {x: 0.000000021855694, y: -0, z: -0, w: 1}
  m_LocalPosition: {x: 1.207284, y: 0, z: 2.6027951}
  m_LocalScale: {x: 1, y: 1, z: 1}
  m_Children: []
  m_Father: {fileID: 776336333}
  m_RootOrder: 5
  m_LocalEulerAnglesHint: {x: 0, y: 0, z: 0}
